[ {
  "resourceId" : "49e258fe-9d40-43b4-9a29-31f82ad5ec15",
  "deviceName" : "device_1",
  "deviceGroup" : "group_a",
  "direction" : "out",
  "power" : [ {
    "min" : 29.163184452205893,
    "max" : 65.44317306454077,
    "avg" : 47.303178758373335,
    "timestamp" : 1626300000
  }, {
    "min" : 13.620455434219808,
    "max" : 99.74979414798125,
    "avg" : 56.68512479110053,
    "timestamp" : 1626300900
  }, {
    "min" : 23.37824512445404,
    "max" : 90.90748071088007,
    "avg" : 57.14286291766705,
    "timestamp" : 1626302700
  }, {
    "min" : 37.46771591669314,
    "max" : 81.35525057376806,
    "avg" : 59.4114832452306,
    "timestamp" : 1626305400
  }, {
    "min" : 27.868272576287424,
    "max" : 71.02130954875403,
    "avg" : 49.44479106252073,
    "timestamp" : 1626309000
  } ]
}, {
  "resourceId" : "4d5b9f5e-2b18-41bd-96f0-96674ed9846a",
  "deviceName" : "device_2",
  "deviceGroup" : "group_a",
  "direction" : "out",
  "power" : [ {
    "min" : 43.369282856064075,
    "max" : 63.832139591421075,
    "avg" : 53.60071122374258,
    "timestamp" : 1626300000
  }, {
    "min" : 43.70940488552223,
    "max" : 60.62410635020656,
    "avg" : 52.166755617864396,
    "timestamp" : 1626300900
  }, {
    "min" : 24.12322499772648,
    "max" : 70.10209546838946,
    "avg" : 47.11266023305797,
    "timestamp" : 1626302700
  }, {
    "min" : 23.65446881456424,
    "max" : 67.29601094926893,
    "avg" : 45.475239881916586,
    "timestamp" : 1626305400
  }, {
    "min" : 18.009724686310783,
    "max" : 64.85273890774997,
    "avg" : 41.43123179703038,
    "timestamp" : 1626309000
  } ]
}, {
  "resourceId" : "75ca6be9-1040-4797-b62d-74a41cae7655",
  "deviceName" : "device_3",
  "deviceGroup" : "group_b",
  "direction" : "in",
  "power" : [ {
    "min" : 31.64977673439958,
    "max" : 54.480270481616174,
    "avg" : 43.06502360800788,
    "timestamp" : 1626300000
  }, {
    "min" : 43.90603252096313,
    "max" : 78.06630554765299,
    "avg" : 60.98616903430806,
    "timestamp" : 1626300900
  }, {
    "min" : 28.755453795141456,
    "max" : 91.3119701057546,
    "avg" : 60.03371195044802,
    "timestamp" : 1626302700
  }, {
    "min" : 17.62998078874724,
    "max" : 97.9574451785198,
    "avg" : 57.793712983633526,
    "timestamp" : 1626305400
  }, {
    "min" : 41.596243612368845,
    "max" : 97.34977845002447,
    "avg" : 69.47301103119666,
    "timestamp" : 1626309000
  }, {
    "min" : 46.80400944158381,
    "max" : 62.19501984831416,
    "avg" : 54.49951464494899,
    "timestamp" : 1626313500
  }, {
    "min" : 45.80207444822013,
    "max" : 94.90680219736966,
    "avg" : 70.35443832279489,
    "timestamp" : 1626318900
  }, {
    "min" : 1.9823580788203619,
    "max" : 58.945182253325825,
    "avg" : 30.463770166073093,
    "timestamp" : 1626325200
  }, {
    "min" : 32.167365656955646,
    "max" : 65.09248973603488,
    "avg" : 48.62992769649526,
    "timestamp" : 1626332400
  }, {
    "min" : 30.89146470840422,
    "max" : 79.05845828629576,
    "avg" : 54.974961497349994,
    "timestamp" : 1626340500
  } ]
}, {
  "resourceId" : "c0219ab3-967f-42d8-b36f-f5f508162c21",
  "deviceName" : "device_4",
  "deviceGroup" : "group_a",
  "direction" : "in",
  "power" : [ {
    "min" : 13.344991978543373,
    "max" : 58.41175097246223,
    "avg" : 35.8783714755028,
    "timestamp" : 1626300000
  }, {
    "min" : 15.745400374920928,
    "max" : 54.881252244183315,
    "avg" : 35.313326309552124,
    "timestamp" : 1626300900
  }, {
    "min" : 2.2050623900362893,
    "max" : 56.10605893221939,
    "avg" : 29.15556066112784,
    "timestamp" : 1626302700
  }, {
    "min" : 31.005550702441262,
    "max" : 91.00152157979133,
    "avg" : 61.0035361411163,
    "timestamp" : 1626305400
  }, {
    "min" : 32.72818093065443,
    "max" : 93.87894826180641,
    "avg" : 63.30356459623042,
    "timestamp" : 1626309000
  }, {
    "min" : 41.48594988854896,
    "max" : 63.153483648865645,
    "avg" : 52.3197167687073,
    "timestamp" : 1626313500
  }, {
    "min" : 13.749137517293674,
    "max" : 97.00857630331464,
    "avg" : 55.37885691030416,
    "timestamp" : 1626318900
  }, {
    "min" : 41.04258071678288,
    "max" : 68.3822322542313,
    "avg" : 54.71240648550709,
    "timestamp" : 1626325200
  }, {
    "min" : 29.344504378911974,
    "max" : 56.49170219776079,
    "avg" : 42.91810328833638,
    "timestamp" : 1626332400
  }, {
    "min" : 40.95310810127469,
    "max" : 91.22634336383288,
    "avg" : 66.08972573255379,
    "timestamp" : 1626340500
  } ]
}, {
  "resourceId" : "f81beded-44e4-46bb-aaf7-7d213fa9b045",
  "deviceName" : "device_5",
  "deviceGroup" : "group_a",
  "direction" : "in",
  "power" : [ {
    "min" : 1.1664270592085701,
    "max" : 91.78623626010425,
    "avg" : 46.47633165965641,
    "timestamp" : 1626300000
  }, {
    "min" : 26.492944206184276,
    "max" : 75.11503648154684,
    "avg" : 50.80399034386556,
    "timestamp" : 1626300900
  }, {
    "min" : 22.56492714199289,
    "max" : 75.92362448434817,
    "avg" : 49.24427581317053,
    "timestamp" : 1626302700
  }, {
    "min" : 25.144192611236782,
    "max" : 65.39618623876079,
    "avg" : 45.27018942499879,
    "timestamp" : 1626305400
  }, {
    "min" : 47.91230906954168,
    "max" : 88.24770963958575,
    "avg" : 68.08000935456371,
    "timestamp" : 1626309000
  }, {
    "min" : 15.33594646595405,
    "max" : 51.41243105735909,
    "avg" : 33.37418876165657,
    "timestamp" : 1626313500
  }, {
    "min" : 18.145824349379925,
    "max" : 79.80327945200587,
    "avg" : 48.974551900692894,
    "timestamp" : 1626318900
  }, {
    "min" : 20.607561216186074,
    "max" : 89.8249037027233,
    "avg" : 55.21623245945469,
    "timestamp" : 1626325200
  }, {
    "min" : 7.17852517470309,
    "max" : 76.44537021442764,
    "avg" : 41.81194769456536,
    "timestamp" : 1626332400
  }, {
    "min" : 28.610970265325914,
    "max" : 54.947530389585175,
    "avg" : 41.77925032745554,
    "timestamp" : 1626340500
  } ]
}, {
  "resourceId" : "a9848239-57bb-4ea9-8267-55992ef1e42c",
  "deviceName" : "device_6",
  "deviceGroup" : "group_a",
  "direction" : "out",
  "power" : [ {
    "min" : 22.493275446556304,
    "max" : 78.06952987153798,
    "avg" : 50.281402659047146,
    "timestamp" : 1626300000
  }, {
    "min" : 42.42372092885467,
    "max" : 79.19959482359415,
    "avg" : 60.811657876224416,
    "timestamp" : 1626300900
  }, {
    "min" : 49.931186223156786,
    "max" : 64.97353406898749,
    "avg" : 57.45236014607214,
    "timestamp" : 1626302700
  }, {
    "min" : 16.231387809640335,
    "max" : 67.91026303049556,
    "avg" : 42.07082542006795,
    "timestamp" : 1626305400
  }, {
    "min" : 4.413266035072121,
    "max" : 98.25271598602473,
    "avg" : 51.332991010548426,
    "timestamp" : 1626309000
  }, {
    "min" : 49.55613031092982,
    "max" : 83.61593591606896,
    "avg" : 66.58603311349938,
    "timestamp" : 1626313500
  }, {
    "min" : 12.09288854815766,
    "max" : 66.30387285217186,
    "avg" : 39.19838070016476,
    "timestamp" : 1626318900
  }, {
    "min" : 24.85760412800143,
    "max" : 57.679834895500036,
    "avg" : 41.26871951175073,
    "timestamp" : 1626325200
  }, {
    "min" : 34.22669311038136,
    "max" : 94.96683725904337,
    "avg" : 64.59676518471237,
    "timestamp" : 1626332400
  }, {
    "min" : 17.513095662725163,
    "max" : 88.53290382169888,
    "avg" : 53.02299974221202,
    "timestamp" : 1626340500
  } ]
}, {
  "resourceId" : "c2e99f34-1241-49a2-a1ce-5a08a5d3efab",
  "deviceName" : "device_7",
  "deviceGroup" : "group_b",
  "direction" : "in",
  "power" : [ {
    "min" : 30.87284051385243,
    "max" : 75.56815333807498,
    "avg" : 53.2204969259637,
    "timestamp" : 1626300000
  }, {
    "min" : 3.8956540543999165,
    "max" : 60.08611839918551,
    "avg" : 31.990886226792714,
    "timestamp" : 1626300900
  }, {
    "min" : 9.378084776182467,
    "max" : 71.14788680585855,
    "avg" : 40.262985791020505,
    "timestamp" : 1626302700
  }, {
    "min" : 30.512172010377995,
    "max" : 93.8965015954533,
    "avg" : 62.20433680291565,
    "timestamp" : 1626305400
  }, {
    "min" : 23.498898467158057,
    "max" : 90.4484595586573,
    "avg" : 56.97367901290768,
    "timestamp" : 1626309000
  }, {
    "min" : 39.93775981953733,
    "max" : 66.48262984229557,
    "avg" : 53.21019483091645,
    "timestamp" : 1626313500
  }, {
    "min" : 4.916941315593268,
    "max" : 72.82350033928904,
    "avg" : 38.87022082744115,
    "timestamp" : 1626318900
  }, {
    "min" : 13.588466141959065,
    "max" : 63.780146468222426,
    "avg" : 38.68430630509074,
    "timestamp" : 1626325200
  }, {
    "min" : 32.85543987648984,
    "max" : 85.08504957432251,
    "avg" : 58.970244725406175,
    "timestamp" : 1626332400
  }, {
    "min" : 9.211238199203382,
    "max" : 96.10374807384173,
    "avg" : 52.657493136522554,
    "timestamp" : 1626340500
  } ]
}, {
  "resourceId" : "4bd9e4a9-c631-4073-8a03-35de191c0e70",
  "deviceName" : "device_8",
  "deviceGroup" : "group_b",
  "direction" : "in",
  "power" : [ {
    "min" : 45.48059957093186,
    "max" : 74.4490655810457,
    "avg" : 59.96483257598878,
    "timestamp" : 1626300000
  }, {
    "min" : 11.338265412069262,
    "max" : 85.13938232768007,
    "avg" : 48.238823869874665,
    "timestamp" : 1626300900
  }, {
    "min" : 46.780944668712095,
    "max" : 59.162017384713295,
    "avg" : 52.971481026712695,
    "timestamp" : 1626302700
  }, {
    "min" : 1.8521894268547605,
    "max" : 63.42882398429049,
    "avg" : 32.640506705572626,
    "timestamp" : 1626305400
  }, {
    "min" : 18.65752787751274,
    "max" : 78.09546820830755,
    "avg" : 48.37649804291014,
    "timestamp" : 1626309000
  }, {
    "min" : 21.23937678856406,
    "max" : 57.52855796791635,
    "avg" : 39.3839673782402,
    "timestamp" : 1626313500
  }, {
    "min" : 17.029234815169005,
    "max" : 99.58089707736858,
    "avg" : 58.30506594626879,
    "timestamp" : 1626318900
  }, {
    "min" : 42.07034841944277,
    "max" : 91.52585174285997,
    "avg" : 66.79810008115138,
    "timestamp" : 1626325200
  }, {
    "min" : 20.859966280975566,
    "max" : 76.02359874670175,
    "avg" : 48.44178251383866,
    "timestamp" : 1626332400
  }, {
    "min" : 18.739601686372175,
    "max" : 60.877146128006586,
    "avg" : 39.80837390718938,
    "timestamp" : 1626340500
  } ]
}, {
  "resourceId" : "b7f3ec77-ae15-4e99-a53a-fbfcaac46518",
  "deviceName" : "device_9",
  "deviceGroup" : "group_a",
  "direction" : "in",
  "power" : [ {
    "min" : 32.148238432148716,
    "max" : 61.38237643085593,
    "avg" : 46.76530743150232,
    "timestamp" : 1626300000
  }, {
    "min" : 41.52152942890293,
    "max" : 72.59734439837999,
    "avg" : 57.05943691364146,
    "timestamp" : 1626300900
  }, {
    "min" : 18.084805775653162,
    "max" : 77.43081363814177,
    "avg" : 47.75780970689747,
    "timestamp" : 1626302700
  }, {
    "min" : 39.55473872869694,
    "max" : 61.67334201437673,
    "avg" : 50.61404037153683,
    "timestamp" : 1626305400
  }, {
    "min" : 22.78020544669598,
    "max" : 54.82628518106264,
    "avg" : 38.80324531387931,
    "timestamp" : 1626309000
  }, {
    "min" : 4.4540443032754045,
    "max" : 82.2010727091603,
    "avg" : 43.327558506217855,
    "timestamp" : 1626313500
  }, {
    "min" : 19.191617277633203,
    "max" : 69.40447598992499,
    "avg" : 44.298046633779094,
    "timestamp" : 1626318900
  }, {
    "min" : 49.867530123448546,
    "max" : 80.15261377158254,
    "avg" : 65.01007194751554,
    "timestamp" : 1626325200
  }, {
    "min" : 7.137286727932572,
    "max" : 95.78998610386535,
    "avg" : 51.46363641589896,
    "timestamp" : 1626332400
  }, {
    "min" : 25.445522184163202,
    "max" : 80.86833574189083,
    "avg" : 53.15692896302701,
    "timestamp" : 1626340500
  } ]
}, {
  "resourceId" : "8fbd08a0-8a0d-4107-9bf2-9a7824e4fa30",
  "deviceName" : "device_10",
  "deviceGroup" : "group_a",
  "direction" : "in",
  "power" : [ {
    "min" : 11.576741958864195,
    "max" : 88.36775426532729,
    "avg" : 49.97224811209574,
    "timestamp" : 1626300000
  }, {
    "min" : 33.36895146184314,
    "max" : 91.33884396144138,
    "avg" : 62.35389771164226,
    "timestamp" : 1626300900
  }, {
    "min" : 34.65635809999457,
    "max" : 81.89535493233295,
    "avg" : 58.275856516163756,
    "timestamp" : 1626302700
  }, {
    "min" : 24.796525062556864,
    "max" : 93.0923961844488,
    "avg" : 58.944460623502835,
    "timestamp" : 1626305400
  }, {
    "min" : 48.37234306868527,
    "max" : 51.552815739528114,
    "avg" : 49.96257940410669,
    "timestamp" : 1626309000
  }, {
    "min" : 1.3332580714678481,
    "max" : 72.03573707068293,
    "avg" : 36.68449757107539,
    "timestamp" : 1626313500
  }, {
    "min" : 27.08702340653123,
    "max" : 93.02449369021308,
    "avg" : 60.055758548372154,
    "timestamp" : 1626318900
  }, {
    "min" : 11.897371321358941,
    "max" : 56.90976169038214,
    "avg" : 34.40356650587054,
    "timestamp" : 1626325200
  }, {
    "min" : 6.549327583424198,
    "max" : 88.28659261602488,
    "avg" : 47.41796009972454,
    "timestamp" : 1626332400
  }, {
    "min" : 36.1681837148847,
    "max" : 79.11613028166532,
    "avg" : 57.64215699827501,
    "timestamp" : 1626340500
  } ]
}, {
  "resourceId" : "5410dc13-912e-4d93-8a31-ffa285a778a8",
  "deviceName" : "device_11",
  "deviceGroup" : "group_a",
  "direction" : "out",
  "power" : [ {
    "min" : 22.516682788894286,
    "max" : 96.1343265869335,
    "avg" : 59.32550468791389,
    "timestamp" : 1626300000
  }, {
    "min" : 13.134571543755277,
    "max" : 68.54695286659172,
    "avg" : 40.8407622051735,
    "timestamp" : 1626300900
  }, {
    "min" : 17.553041826306174,
    "max" : 65.1242536115074,
    "avg" : 41.338647718906785,
    "timestamp" : 1626302700
  }, {
    "min" : 1.1317131628768484,
    "max" : 60.70688070093099,
    "avg" : 30.91929693190392,
    "timestamp" : 1626305400
  }, {
    "min" : 17.08658610990298,
    "max" : 57.53024240502658,
    "avg" : 37.308414257464776,
    "timestamp" : 1626309000
  }, {
    "min" : 38.15327374754992,
    "max" : 92.85541403156864,
    "avg" : 65.50434388955928,
    "timestamp" : 1626313500
  }, {
    "min" : 36.35065560465146,
    "max" : 98.11555634880202,
    "avg" : 67.23310597672673,
    "timestamp" : 1626318900
  }, {
    "min" : 31.156813846135144,
    "max" : 94.11697321663912,
    "avg" : 62.63689353138713,
    "timestamp" : 1626325200
  }, {
    "min" : 32.40276608211788,
    "max" : 57.00894749342433,
    "avg" : 44.705856787771104,
    "timestamp" : 1626332400
  }, {
    "min" : 29.542148975337508,
    "max" : 84.50723619690662,
    "avg" : 57.024692586122065,
    "timestamp" : 1626340500
  } ]
}, {
  "resourceId" : "08dcce3b-51e4-4d30-a1f2-6f15a0ad2e04",
  "deviceName" : "device_12",
  "deviceGroup" : "group_b",
  "direction" : "out",
  "power" : [ {
    "min" : 16.019121117760314,
    "max" : 84.73923125470013,
    "avg" : 50.379176186230225,
    "timestamp" : 1626300000
  }, {
    "min" : 40.97555578113572,
    "max" : 90.60651086221705,
    "avg" : 65.79103332167638,
    "timestamp" : 1626300900
  }, {
    "min" : 19.89576555633214,
    "max" : 59.53066226586435,
    "avg" : 39.713213911098244,
    "timestamp" : 1626302700
  }, {
    "min" : 47.257091400687656,
    "max" : 56.17432978044489,
    "avg" : 51.715710590566275,
    "timestamp" : 1626305400
  }, {
    "min" : 11.252647103033283,
    "max" : 73.29054346108327,
    "avg" : 42.27159528205828,
    "timestamp" : 1626309000
  }, {
    "min" : 26.984014100968,
    "max" : 77.34424317469947,
    "avg" : 52.164128637833734,
    "timestamp" : 1626313500
  }, {
    "min" : 9.633061926017579,
    "max" : 90.33084320669802,
    "avg" : 49.9819525663578,
    "timestamp" : 1626318900
  }, {
    "min" : 20.35016570560737,
    "max" : 83.16371759899695,
    "avg" : 51.75694165230216,
    "timestamp" : 1626325200
  }, {
    "min" : 36.41855293409671,
    "max" : 65.7572027553174,
    "avg" : 51.08787784470705,
    "timestamp" : 1626332400
  }, {
    "min" : 11.539353085352523,
    "max" : 72.15128894892109,
    "avg" : 41.84532101713681,
    "timestamp" : 1626340500
  } ]
}, {
  "resourceId" : "af9ce146-7320-4744-b8ab-045049e8050d",
  "deviceName" : "device_13",
  "deviceGroup" : "group_b",
  "direction" : "out",
  "power" : [ {
    "min" : 41.33809543678671,
    "max" : 52.631570219831666,
    "avg" : 46.98483282830919,
    "timestamp" : 1626300000
  }, {
    "min" : 27.820191587829388,
    "max" : 99.2316057283353,
    "avg" : 63.52589865808234,
    "timestamp" : 1626300900
  }, {
    "min" : 6.040442773403153,
    "max" : 67.46877574497569,
    "avg" : 36.75460925918942,
    "timestamp" : 1626302700
  }, {
    "min" : 9.630512671334653,
    "max" : 97.87870778079628,
    "avg" : 53.754610226065466,
    "timestamp" : 1626305400
  }, {
    "min" : 15.61981056294189,
    "max" : 56.36276416440518,
    "avg" : 35.991287363673536,
    "timestamp" : 1626309000
  }, {
    "min" : 24.651380994505352,
    "max" : 85.54887028640536,
    "avg" : 55.10012564045536,
    "timestamp" : 1626313500
  }, {
    "min" : 48.837590413646396,
    "max" : 82.05473998135147,
    "avg" : 65.44616519749894,
    "timestamp" : 1626318900
  }, {
    "min" : 18.113901084913525,
    "max" : 62.51657570561576,
    "avg" : 40.31523839526464,
    "timestamp" : 1626325200
  }, {
    "min" : 7.666608113211369,
    "max" : 80.55338280974303,
    "avg" : 44.1099954614772,
    "timestamp" : 1626332400
  }, {
    "min" : 48.356432909068175,
    "max" : 91.04063707659688,
    "avg" : 69.69853499283252,
    "timestamp" : 1626340500
  } ]
}, {
  "resourceId" : "b4ad0fa0-5bd8-425e-895e-0474d800892c",
  "deviceName" : "device_14",
  "deviceGroup" : "group_a",
  "direction" : "in",
  "power" : [ {
    "min" : 28.699440228008143,
    "max" : 56.496363048018154,
    "avg" : 42.59790163801315,
    "timestamp" : 1626300000
  }, {
    "min" : 39.95548719420857,
    "max" : 76.38223356265374,
    "avg" : 58.168860378431155,
    "timestamp" : 1626300900
  }, {
    "min" : 29.90862708486151,
    "max" : 58.3027567674761,
    "avg" : 44.1056919261688,
    "timestamp" : 1626302700
  }, {
    "min" : 42.59048120852765,
    "max" : 73.57260200416384,
    "avg" : 58.081541606345745,
    "timestamp" : 1626305400
  }, {
    "min" : 9.224137863518303,
    "max" : 87.30754161287743,
    "avg" : 48.26583973819787,
    "timestamp" : 1626309000
  }, {
    "min" : 21.17071484342391,
    "max" : 74.98533820160236,
    "avg" : 48.078026522513134,
    "timestamp" : 1626313500
  }, {
    "min" : 6.402246261637731,
    "max" : 64.49222714127187,
    "avg" : 35.4472367014548,
    "timestamp" : 1626318900
  }, {
    "min" : 14.65232049727856,
    "max" : 53.70674401220821,
    "avg" : 34.179532254743386,
    "timestamp" : 1626325200
  }, {
    "min" : 29.699993541996843,
    "max" : 84.1297641007955,
    "avg" : 56.91487882139617,
    "timestamp" : 1626332400
  }, {
    "min" : 31.40363386344819,
    "max" : 78.41740159065702,
    "avg" : 54.91051772705261,
    "timestamp" : 1626340500
  } ]
}, {
  "resourceId" : "6dd20f3a-db4b-4177-a7d0-452b8af4c580",
  "deviceName" : "device_15",
  "deviceGroup" : "group_a",
  "direction" : "in",
  "power" : [ {
    "min" : 47.94073370168438,
    "max" : 53.64722491244304,
    "avg" : 50.79397930706371,
    "timestamp" : 1626300000
  }, {
    "min" : 30.93930141882224,
    "max" : 55.999093418535125,
    "avg" : 43.46919741867868,
    "timestamp" : 1626300900
  }, {
    "min" : 22.65877736479966,
    "max" : 59.27635717568106,
    "avg" : 40.967567270240366,
    "timestamp" : 1626302700
  }, {
    "min" : 2.336662351702904,
    "max" : 78.36345779888771,
    "avg" : 40.3500600752953,
    "timestamp" : 1626305400
  }, {
    "min" : 2.1449249839350935,
    "max" : 77.60996511930382,
    "avg" : 39.87744505161946,
    "timestamp" : 1626309000
  }, {
    "min" : 7.672303922950762,
    "max" : 60.06221287597142,
    "avg" : 33.86725839946109,
    "timestamp" : 1626313500
  }, {
    "min" : 29.37976810483722,
    "max" : 68.01116253041793,
    "avg" : 48.69546531762758,
    "timestamp" : 1626318900
  }, {
    "min" : 16.37238112341029,
    "max" : 75.08351772230687,
    "avg" : 45.72794942285858,
    "timestamp" : 1626325200
  }, {
    "min" : 9.03785799404534,
    "max" : 62.932904975505345,
    "avg" : 35.985381484775345,
    "timestamp" : 1626332400
  }, {
    "min" : 1.457206640521415,
    "max" : 97.86503667876812,
    "avg" : 49.66112165964477,
    "timestamp" : 1626340500
  } ]
}, {
  "resourceId" : "d2482783-2039-40a8-8196-80ceb51d06db",
  "deviceName" : "device_16",
  "deviceGroup" : "group_a",
  "direction" : "out",
  "power" : [ {
    "min" : 48.973447945598004,
    "max" : 61.59681037983971,
    "avg" : 55.28512916271886,
    "timestamp" : 1626300000
  }, {
    "min" : 43.27876579993253,
    "max" : 63.96146065323011,
    "avg" : 53.620113226581324,
    "timestamp" : 1626300900
  }, {
    "min" : 31.857256435790497,
    "max" : 53.153116715434095,
    "avg" : 42.5051865756123,
    "timestamp" : 1626302700
  }, {
    "min" : 1.4992378434283022,
    "max" : 57.992743526522716,
    "avg" : 29.74599068497551,
    "timestamp" : 1626305400
  }, {
    "min" : 44.92375406337045,
    "max" : 74.39774163133582,
    "avg" : 59.660747847353136,
    "timestamp" : 1626309000
  }, {
    "min" : 43.73926802362863,
    "max" : 77.46904045118438,
    "avg" : 60.604154237406505,
    "timestamp" : 1626313500
  }, {
    "min" : 20.109777801412587,
    "max" : 69.35774658168995,
    "avg" : 44.73376219155127,
    "timestamp" : 1626318900
  }, {
    "min" : 1.536635268860099,
    "max" : 92.8392913095548,
    "avg" : 47.187963289207445,
    "timestamp" : 1626325200
  }, {
    "min" : 8.217792290141116,
    "max" : 51.57313016006038,
    "avg" : 29.895461225100746,
    "timestamp" : 1626332400
  }, {
    "min" : 47.99915016964513,
    "max" : 57.64263314517447,
    "avg" : 52.8208916574098,
    "timestamp" : 1626340500
  } ]
}, {
  "resourceId" : "588cb759-dd92-49b0-bba1-858a4ad466b1",
  "deviceName" : "device_17",
  "deviceGroup" : "group_b",
  "direction" : "out",
  "power" : [ {
    "min" : 22.120925653486196,
    "max" : 77.70069650466853,
    "avg" : 49.91081107907736,
    "timestamp" : 1626300000
  }, {
    "min" : 14.810003571156692,
    "max" : 86.95530326523021,
    "avg" : 50.882653418193456,
    "timestamp" : 1626300900
  }, {
    "min" : 37.44192995969643,
    "max" : 57.14487286170609,
    "avg" : 47.293401410701264,
    "timestamp" : 1626302700
  }, {
    "min" : 26.04947226634133,
    "max" : 81.42040920173903,
    "avg" : 53.73494073404018,
    "timestamp" : 1626305400
  }, {
    "min" : 17.584532094668717,
    "max" : 74.78070098449956,
    "avg" : 46.18261653958414,
    "timestamp" : 1626309000
  }, {
    "min" : 1.633789013706423,
    "max" : 87.02393443424616,
    "avg" : 44.32886172397629,
    "timestamp" : 1626313500
  }, {
    "min" : 16.473146523678935,
    "max" : 95.47579124316741,
    "avg" : 55.97446888342317,
    "timestamp" : 1626318900
  }, {
    "min" : 15.040153383609352,
    "max" : 52.437563494941095,
    "avg" : 33.738858439275226,
    "timestamp" : 1626325200
  }, {
    "min" : 36.8657259762788,
    "max" : 69.04094923326868,
    "avg" : 52.953337604773736,
    "timestamp" : 1626332400
  }, {
    "min" : 34.38627294194231,
    "max" : 78.18738622674341,
    "avg" : 56.28682958434286,
    "timestamp" : 1626340500
  } ]
}, {
  "resourceId" : "943d3685-8054-4082-9362-fd4e9771c3c6",
  "deviceName" : "device_18",
  "deviceGroup" : "group_b",
  "direction" : "in",
  "power" : [ {
    "min" : 1.644587151165991,
    "max" : 65.44320674787848,
    "avg" : 33.543896949522235,
    "timestamp" : 1626300000
  }, {
    "min" : 1.8634956135144813,
    "max" : 92.1272792762332,
    "avg" : 46.99538744487384,
    "timestamp" : 1626300900
  }, {
    "min" : 19.061281404636084,
    "max" : 91.60040719893037,
    "avg" : 55.33084430178323,
    "timestamp" : 1626302700
  }, {
    "min" : 7.98448503087805,
    "max" : 51.6967268684558,
    "avg" : 29.840605949666923,
    "timestamp" : 1626305400
  }, {
    "min" : 41.51419023187444,
    "max" : 84.84305365546459,
    "avg" : 63.17862194366951,
    "timestamp" : 1626309000
  }, {
    "min" : 2.0995910771239923,
    "max" : 82.22507195808802,
    "avg" : 42.162331517606006,
    "timestamp" : 1626313500
  }, {
    "min" : 49.0712529691449,
    "max" : 88.17700084627128,
    "avg" : 68.62412690770809,
    "timestamp" : 1626318900
  }, {
    "min" : 29.160447705360387,
    "max" : 96.10767275901766,
    "avg" : 62.63406023218902,
    "timestamp" : 1626325200
  }, {
    "min" : 26.615312456930617,
    "max" : 62.809666562079876,
    "avg" : 44.71248950950525,
    "timestamp" : 1626332400
  }, {
    "min" : 4.76500993906803,
    "max" : 57.02416381892197,
    "avg" : 30.894586878995,
    "timestamp" : 1626340500
  } ]
}, {
  "resourceId" : "81e51312-2015-406e-8887-83dbdaf60026",
  "deviceName" : "device_19",
  "deviceGroup" : "group_a",
  "direction" : "out",
  "power" : [ {
    "min" : 9.185825473194036,
    "max" : 95.0128018084292,
    "avg" : 52.099313640811616,
    "timestamp" : 1626300000
  }, {
    "min" : 33.10516331375359,
    "max" : 60.49497938567761,
    "avg" : 46.8000713497156,
    "timestamp" : 1626300900
  }, {
    "min" : 31.81826000038958,
    "max" : 56.28641978897259,
    "avg" : 44.05233989468108,
    "timestamp" : 1626302700
  }, {
    "min" : 3.556179276425682,
    "max" : 68.97956282408568,
    "avg" : 36.26787105025568,
    "timestamp" : 1626305400
  }, {
    "min" : 44.941244798304126,
    "max" : 84.9614048953673,
    "avg" : 64.95132484683572,
    "timestamp" : 1626309000
  }, {
    "min" : 30.296736104074867,
    "max" : 65.40811033244236,
    "avg" : 47.852423218258615,
    "timestamp" : 1626313500
  }, {
    "min" : 9.181619173931582,
    "max" : 67.8323560907289,
    "avg" : 38.50698763233024,
    "timestamp" : 1626318900
  }, {
    "min" : 4.528856989813422,
    "max" : 74.50848170223293,
    "avg" : 39.518669346023174,
    "timestamp" : 1626325200
  }, {
    "min" : 23.248781412693976,
    "max" : 58.1476104617684,
    "avg" : 40.69819593723119,
    "timestamp" : 1626332400
  }, {
    "min" : 46.579050440414555,
    "max" : 62.5408297421929,
    "avg" : 54.55994009130373,
    "timestamp" : 1626340500
  } ]
}, {
  "resourceId" : "5d701e45-d4ac-462f-b8b5-21183e9616a0",
  "deviceName" : "device_20",
  "deviceGroup" : "group_a",
  "direction" : "out",
  "power" : [ {
    "min" : 4.422309315979185,
    "max" : 61.29998310597214,
    "avg" : 32.86114621097566,
    "timestamp" : 1626300000
  }, {
    "min" : 10.405108047720011,
    "max" : 56.08477229723408,
    "avg" : 33.244940172477044,
    "timestamp" : 1626300900
  }, {
    "min" : 44.05059059914836,
    "max" : 81.85960586676897,
    "avg" : 62.95509823295866,
    "timestamp" : 1626302700
  }, {
    "min" : 7.8073991340521784,
    "max" : 86.33738421624739,
    "avg" : 47.07239167514978,
    "timestamp" : 1626305400
  }, {
    "min" : 24.38324435117255,
    "max" : 53.169365795007224,
    "avg" : 38.77630507308989,
    "timestamp" : 1626309000
  }, {
    "min" : 42.94919710908309,
    "max" : 69.97501389049462,
    "avg" : 56.462105499788855,
    "timestamp" : 1626313500
  }, {
    "min" : 12.006412516554112,
    "max" : 94.5837718057429,
    "avg" : 53.2950921611485,
    "timestamp" : 1626318900
  }, {
    "min" : 28.627478581082396,
    "max" : 60.00791987399168,
    "avg" : 44.31769922753704,
    "timestamp" : 1626325200
  }, {
    "min" : 18.127531987779893,
    "max" : 51.573698053206826,
    "avg" : 34.85061502049336,
    "timestamp" : 1626332400
  }, {
    "min" : 32.103780354895456,
    "max" : 68.21392649798196,
    "avg" : 50.15885342643871,
    "timestamp" : 1626340500
  } ]
}, {
  "resourceId" : "63a95672-83c6-4728-a442-9c058b417434",
  "deviceName" : "device_21",
  "deviceGroup" : "group_b",
  "direction" : "in",
  "power" : [ {
    "min" : 10.964987487419119,
    "max" : 85.34229934975058,
    "avg" : 48.15364341858485,
    "timestamp" : 1626300000
  }, {
    "min" : 9.204146406354132,
    "max" : 88.67580311260107,
    "avg" : 48.9399747594776,
    "timestamp" : 1626300900
  }, {
    "min" : 5.538093703274631,
    "max" : 68.30149160174727,
    "avg" : 36.91979265251095,
    "timestamp" : 1626302700
  }, {
    "min" : 49.827832113464844,
    "max" : 90.66676061456681,
    "avg" : 70.24729636401582,
    "timestamp" : 1626305400
  }, {
    "min" : 2.224116847995203,
    "max" : 95.74374675856964,
    "avg" : 48.983931803282424,
    "timestamp" : 1626309000
  }, {
    "min" : 3.9663608610860805,
    "max" : 77.62948604345401,
    "avg" : 40.79792345227004,
    "timestamp" : 1626313500
  }, {
    "min" : 7.55163412057773,
    "max" : 98.31054672548987,
    "avg" : 52.9310904230338,
    "timestamp" : 1626318900
  }, {
    "min" : 6.827695316448663,
    "max" : 63.27630629894187,
    "avg" : 35.052000807695265,
    "timestamp" : 1626325200
  }, {
    "min" : 25.83325826122212,
    "max" : 92.40670693470622,
    "avg" : 59.11998259796417,
    "timestamp" : 1626332400
  }, {
    "min" : 45.68469073747132,
    "max" : 73.90159062143844,
    "avg" : 59.79314067945488,
    "timestamp" : 1626340500
  } ]
}, {
  "resourceId" : "00e19e98-3d16-4425-97df-505e61b3f064",
  "deviceName" : "device_22",
  "deviceGroup" : "group_b",
  "direction" : "in",
  "power" : [ {
    "min" : 32.405846941059735,
    "max" : 71.53885719767501,
    "avg" : 51.972352069367375,
    "timestamp" : 1626300000
  }, {
    "min" : 49.62266252909023,
    "max" : 67.84220994464718,
    "avg" : 58.73243623686871,
    "timestamp" : 1626300900
  }, {
    "min" : 38.442571591054296,
    "max" : 63.66674488581424,
    "avg" : 51.05465823843427,
    "timestamp" : 1626302700
  }, {
    "min" : 31.447823444438594,
    "max" : 95.64785134851617,
    "avg" : 63.547837396477384,
    "timestamp" : 1626305400
  }, {
    "min" : 41.528773259055264,
    "max" : 88.04761140567581,
    "avg" : 64.78819233236554,
    "timestamp" : 1626309000
  }, {
    "min" : 16.636500321877037,
    "max" : 98.93021497973837,
    "avg" : 57.7833576508077,
    "timestamp" : 1626313500
  }, {
    "min" : 3.452320666917557,
    "max" : 69.72674868203822,
    "avg" : 36.58953467447789,
    "timestamp" : 1626318900
  }, {
    "min" : 44.35445745233386,
    "max" : 88.04858363125498,
    "avg" : 66.20152054179442,
    "timestamp" : 1626325200
  }, {
    "min" : 26.949220963612955,
    "max" : 83.78144019208625,
    "avg" : 55.365330577849605,
    "timestamp" : 1626332400
  }, {
    "min" : 48.25631752071392,
    "max" : 99.75901301523481,
    "avg" : 74.00766526797437,
    "timestamp" : 1626340500
  } ]
}, {
  "resourceId" : "bb78f8c2-6057-4602-9f41-84b63bdec699",
  "deviceName" : "device_23",
  "deviceGroup" : "group_b",
  "direction" : "out",
  "power" : [ {
    "min" : 28.46653060832732,
    "max" : 85.66085802172687,
    "avg" : 57.06369431502709,
    "timestamp" : 1626300000
  }, {
    "min" : 26.98699543325769,
    "max" : 68.70532607049869,
    "avg" : 47.84616075187819,
    "timestamp" : 1626300900
  }, {
    "min" : 1.3571417030759152,
    "max" : 95.48106356827238,
    "avg" : 48.41910263567414,
    "timestamp" : 1626302700
  }, {
    "min" : 48.05019119806715,
    "max" : 52.16235417686585,
    "avg" : 50.1062726874665,
    "timestamp" : 1626305400
  }, {
    "min" : 14.304817355847527,
    "max" : 76.93213105071973,
    "avg" : 45.61847420328363,
    "timestamp" : 1626309000
  }, {
    "min" : 37.983450955548896,
    "max" : 96.75532850890463,
    "avg" : 67.36938973222676,
    "timestamp" : 1626313500
  }, {
    "min" : 8.192883975333574,
    "max" : 51.53350908444716,
    "avg" : 29.863196529890367,
    "timestamp" : 1626318900
  }, {
    "min" : 16.58493743426952,
    "max" : 54.97405969591672,
    "avg" : 35.77949856509312,
    "timestamp" : 1626325200
  }, {
    "min" : 7.076283602244883,
    "max" : 73.3340912788693,
    "avg" : 40.20518744055709,
    "timestamp" : 1626332400
  }, {
    "min" : 32.273952567168074,
    "max" : 55.17651257488984,
    "avg" : 43.725232571028954,
    "timestamp" : 1626340500
  } ]
}, {
  "resourceId" : "37c32f74-bf95-4578-84ca-c3500a275eaa",
  "deviceName" : "device_24",
  "deviceGroup" : "group_b",
  "direction" : "in",
  "power" : [ {
    "min" : 26.39421480347726,
    "max" : 85.79504196580855,
    "avg" : 56.0946283846429,
    "timestamp" : 1626300000
  }, {
    "min" : 8.535468822483221,
    "max" : 92.4336114142622,
    "avg" : 50.48454011837271,
    "timestamp" : 1626300900
  }, {
    "min" : 7.0693995954100135,
    "max" : 68.51633166753066,
    "avg" : 37.79286563147034,
    "timestamp" : 1626302700
  }, {
    "min" : 28.798280396256814,
    "max" : 81.00559662803079,
    "avg" : 54.9019385121438,
    "timestamp" : 1626305400
  }, {
    "min" : 48.680031845406475,
    "max" : 80.67196556074194,
    "avg" : 64.67599870307421,
    "timestamp" : 1626309000
  }, {
    "min" : 44.02710274656811,
    "max" : 88.45996529525254,
    "avg" : 66.24353402091033,
    "timestamp" : 1626313500
  }, {
    "min" : 9.461767022763128,
    "max" : 74.50430714440623,
    "avg" : 41.98303708358468,
    "timestamp" : 1626318900
  }, {
    "min" : 22.77081800839085,
    "max" : 89.44201586032028,
    "avg" : 56.106416934355565,
    "timestamp" : 1626325200
  }, {
    "min" : 36.499652920941145,
    "max" : 97.9944559407256,
    "avg" : 67.24705443083337,
    "timestamp" : 1626332400
  }, {
    "min" : 23.402259119646253,
    "max" : 70.89124278606809,
    "avg" : 47.146750952857175,
    "timestamp" : 1626340500
  } ]
}, {
  "resourceId" : "e65032d5-8d4d-4b42-8726-ef0bd64274e0",
  "deviceName" : "device_25",
  "deviceGroup" : "group_a",
  "direction" : "out",
  "power" : [ {
    "min" : 35.10367021065609,
    "max" : 84.8734988258112,
    "avg" : 59.988584518233644,
    "timestamp" : 1626300000
  }, {
    "min" : 40.809335299645184,
    "max" : 84.0602984266585,
    "avg" : 62.434816863151845,
    "timestamp" : 1626300900
  }, {
    "min" : 6.026614662105303,
    "max" : 85.46858518207753,
    "avg" : 45.74759992209142,
    "timestamp" : 1626302700
  }, {
    "min" : 49.852936072866356,
    "max" : 86.03796428189438,
    "avg" : 67.94545017738037,
    "timestamp" : 1626305400
  }, {
    "min" : 19.87933292780333,
    "max" : 55.48807791704127,
    "avg" : 37.6837054224223,
    "timestamp" : 1626309000
  }, {
    "min" : 14.494016196657544,
    "max" : 66.60356669221913,
    "avg" : 40.548791444438336,
    "timestamp" : 1626313500
  }, {
    "min" : 21.82585741301919,
    "max" : 51.741679280338204,
    "avg" : 36.7837683466787,
    "timestamp" : 1626318900
  }, {
    "min" : 8.610379282216687,
    "max" : 55.14747233120026,
    "avg" : 31.878925806708473,
    "timestamp" : 1626325200
  }, {
    "min" : 31.3997751691354,
    "max" : 72.96425293598685,
    "avg" : 52.18201405256112,
    "timestamp" : 1626332400
  }, {
    "min" : 42.17311956192463,
    "max" : 87.08080220028151,
    "avg" : 64.62696088110307,
    "timestamp" : 1626340500
  } ]
}, {
  "resourceId" : "3872f563-01a1-4126-8a6d-b49732bae82a",
  "deviceName" : "device_26",
  "deviceGroup" : "group_a",
  "direction" : "out",
  "power" : [ {
    "min" : 34.07322698982983,
    "max" : 53.36618019564413,
    "avg" : 43.71970359273698,
    "timestamp" : 1626300000
  }, {
    "min" : 7.633343280008321,
    "max" : 70.62720700707888,
    "avg" : 39.1302751435436,
    "timestamp" : 1626300900
  }, {
    "min" : 20.031176161518605,
    "max" : 60.26843516716547,
    "avg" : 40.14980566434204,
    "timestamp" : 1626302700
  }, {
    "min" : 4.0816932818510825,
    "max" : 56.1405423529352,
    "avg" : 30.11111781739314,
    "timestamp" : 1626305400
  }, {
    "min" : 46.456185395333584,
    "max" : 84.19716126559257,
    "avg" : 65.32667333046308,
    "timestamp" : 1626309000
  }, {
    "min" : 13.986365184896972,
    "max" : 74.1244894807381,
    "avg" : 44.05542733281754,
    "timestamp" : 1626313500
  }, {
    "min" : 38.5126631581477,
    "max" : 96.11039248341444,
    "avg" : 67.31152782078107,
    "timestamp" : 1626318900
  }, {
    "min" : 7.0897470944727,
    "max" : 80.94366310662076,
    "avg" : 44.01670510054673,
    "timestamp" : 1626325200
  }, {
    "min" : 36.13464540034741,
    "max" : 68.00865343636372,
    "avg" : 52.07164941835556,
    "timestamp" : 1626332400
  }, {
    "min" : 21.349427657436905,
    "max" : 75.81046271419768,
    "avg" : 48.579945185817294,
    "timestamp" : 1626340500
  } ]
}, {
  "resourceId" : "8b64eaa8-032a-435b-be6b-bb5fedbb325e",
  "deviceName" : "device_27",
  "deviceGroup" : "group_b",
  "direction" : "in",
  "power" : [ {
    "min" : 14.667412913897223,
    "max" : 85.04153556937638,
    "avg" : 49.8544742416368,
    "timestamp" : 1626300000
  }, {
    "min" : 11.64628113443163,
    "max" : 89.00789851622594,
    "avg" : 50.327089825328784,
    "timestamp" : 1626300900
  }, {
    "min" : 39.39082291187455,
    "max" : 69.3639377549343,
    "avg" : 54.377380333404425,
    "timestamp" : 1626302700
  }, {
    "min" : 38.35046035623258,
    "max" : 77.46585881618273,
    "avg" : 57.90815958620766,
    "timestamp" : 1626305400
  }, {
    "min" : 35.96099015445817,
    "max" : 75.41851069988262,
    "avg" : 55.689750427170395,
    "timestamp" : 1626309000
  }, {
    "min" : 43.735587069556914,
    "max" : 64.74675909634878,
    "avg" : 54.24117308295285,
    "timestamp" : 1626313500
  }, {
    "min" : 44.84703043692565,
    "max" : 66.02496558901167,
    "avg" : 55.43599801296866,
    "timestamp" : 1626318900
  }, {
    "min" : 32.66204392393587,
    "max" : 99.2162328513089,
    "avg" : 65.93913838762239,
    "timestamp" : 1626325200
  }, {
    "min" : 9.910818328350073,
    "max" : 84.64222813915102,
    "avg" : 47.276523233750545,
    "timestamp" : 1626332400
  }, {
    "min" : 5.912223552648021,
    "max" : 79.67550603978044,
    "avg" : 42.79386479621423,
    "timestamp" : 1626340500
  } ]
}, {
  "resourceId" : "a3c2f33b-09c4-4e8b-94d2-557c102ff626",
  "deviceName" : "device_28",
  "deviceGroup" : "group_a",
  "direction" : "out",
  "power" : [ {
    "min" : 34.38030592711962,
    "max" : 59.436050700090576,
    "avg" : 46.9081783136051,
    "timestamp" : 1626300000
  }, {
    "min" : 27.05375007978113,
    "max" : 85.01433447194158,
    "avg" : 56.03404227586135,
    "timestamp" : 1626300900
  }, {
    "min" : 26.600688335634242,
    "max" : 67.33251601227609,
    "avg" : 46.96660217395517,
    "timestamp" : 1626302700
  }, {
    "min" : 24.73106935491203,
    "max" : 93.50682975391643,
    "avg" : 59.11894955441423,
    "timestamp" : 1626305400
  }, {
    "min" : 34.11278096376735,
    "max" : 87.06700741400738,
    "avg" : 60.589894188887364,
    "timestamp" : 1626309000
  }, {
    "min" : 16.841517990672454,
    "max" : 62.21726555962878,
    "avg" : 39.529391775150614,
    "timestamp" : 1626313500
  }, {
    "min" : 17.804223522360473,
    "max" : 86.34852396890832,
    "avg" : 52.0763737456344,
    "timestamp" : 1626318900
  }, {
    "min" : 30.1388621109858,
    "max" : 54.60889742179653,
    "avg" : 42.37387976639116,
    "timestamp" : 1626325200
  }, {
    "min" : 1.106708489132419,
    "max" : 55.6508713477465,
    "avg" : 28.37878991843946,
    "timestamp" : 1626332400
  }, {
    "min" : 27.42546070396446,
    "max" : 60.85607808680266,
    "avg" : 44.14076939538356,
    "timestamp" : 1626340500
  } ]
}, {
  "resourceId" : "9d1a723e-08d8-4f63-a394-2c3279392d47",
  "deviceName" : "device_29",
  "deviceGroup" : "group_a",
  "direction" : "in",
  "power" : [ {
    "min" : 14.47118582510142,
    "max" : 72.81505809379634,
    "avg" : 43.64312195944888,
    "timestamp" : 1626300000
  }, {
    "min" : 18.64364028005336,
    "max" : 56.548422064345324,
    "avg" : 37.596031172199346,
    "timestamp" : 1626300900
  }, {
    "min" : 20.643041995983236,
    "max" : 61.60137803210907,
    "avg" : 41.12221001404615,
    "timestamp" : 1626302700
  }, {
    "min" : 5.857526274206941,
    "max" : 94.44547973480753,
    "avg" : 50.15150300450724,
    "timestamp" : 1626305400
  }, {
    "min" : 13.580559973607818,
    "max" : 92.56498197136358,
    "avg" : 53.0727709724857,
    "timestamp" : 1626309000
  }, {
    "min" : 14.32846960226291,
    "max" : 74.69140941370893,
    "avg" : 44.50993950798592,
    "timestamp" : 1626313500
  }, {
    "min" : 27.21247871448319,
    "max" : 64.14533698423406,
    "avg" : 45.67890784935862,
    "timestamp" : 1626318900
  }, {
    "min" : 36.63040919238713,
    "max" : 75.43128651073252,
    "avg" : 56.03084785155983,
    "timestamp" : 1626325200
  }, {
    "min" : 45.61428420740858,
    "max" : 88.65786134313052,
    "avg" : 67.13607277526955,
    "timestamp" : 1626332400
  }, {
    "min" : 28.025885893013317,
    "max" : 93.08424274090736,
    "avg" : 60.55506431696034,
    "timestamp" : 1626340500
  } ]
}, {
  "resourceId" : "0feeb9ae-58b7-4224-bc6a-eff0f7e1db2e",
  "deviceName" : "device_30",
  "deviceGroup" : "group_a",
  "direction" : "in",
  "power" : [ {
    "min" : 38.59787586722045,
    "max" : 91.9550732838758,
    "avg" : 65.27647457554812,
    "timestamp" : 1626300000
  }, {
    "min" : 12.12911959125264,
    "max" : 89.62329610544055,
    "avg" : 50.876207848346596,
    "timestamp" : 1626300900
  }, {
    "min" : 17.155572081036386,
    "max" : 90.88499128101685,
    "avg" : 54.02028168102662,
    "timestamp" : 1626302700
  }, {
    "min" : 33.219447501903325,
    "max" : 72.08774770963882,
    "avg" : 52.65359760577107,
    "timestamp" : 1626305400
  }, {
    "min" : 42.67693683305062,
    "max" : 69.31608479470319,
    "avg" : 55.9965108138769,
    "timestamp" : 1626309000
  }, {
    "min" : 7.436616422523981,
    "max" : 94.21122379082098,
    "avg" : 50.82392010667248,
    "timestamp" : 1626313500
  }, {
    "min" : 42.365697099408756,
    "max" : 82.42096615664742,
    "avg" : 62.39333162802809,
    "timestamp" : 1626318900
  }, {
    "min" : 38.48880116787263,
    "max" : 52.48692112955428,
    "avg" : 45.487861148713456,
    "timestamp" : 1626325200
  }, {
    "min" : 11.824083957201246,
    "max" : 75.115071386151,
    "avg" : 43.46957767167612,
    "timestamp" : 1626332400
  }, {
    "min" : 24.43491463512876,
    "max" : 76.21136839232395,
    "avg" : 50.323141513726355,
    "timestamp" : 1626340500
  } ]
}, {
  "resourceId" : "af3c53a7-3686-4393-9872-80ff3b319e34",
  "deviceName" : "device_31",
  "deviceGroup" : "group_a",
  "direction" : "out",
  "power" : [ {
    "min" : 29.343177091397894,
    "max" : 98.03196455183544,
    "avg" : 63.68757082161667,
    "timestamp" : 1626300000
  }, {
    "min" : 5.564676867113605,
    "max" : 67.04894414121021,
    "avg" : 36.30681050416191,
    "timestamp" : 1626300900
  }, {
    "min" : 42.040421784802206,
    "max" : 96.18349561452088,
    "avg" : 69.11195869966154,
    "timestamp" : 1626302700
  }, {
    "min" : 36.39306707408975,
    "max" : 54.44165780145104,
    "avg" : 45.41736243777039,
    "timestamp" : 1626305400
  }, {
    "min" : 43.61923699960976,
    "max" : 62.50087251744343,
    "avg" : 53.0600547585266,
    "timestamp" : 1626309000
  }, {
    "min" : 11.310215020204334,
    "max" : 81.7521706425085,
    "avg" : 46.53119283135642,
    "timestamp" : 1626313500
  }, {
    "min" : 38.19068737597595,
    "max" : 63.78183231409755,
    "avg" : 50.98625984503675,
    "timestamp" : 1626318900
  }, {
    "min" : 2.4834336847482126,
    "max" : 55.372730246828446,
    "avg" : 28.92808196578833,
    "timestamp" : 1626325200
  }, {
    "min" : 43.29348151822894,
    "max" : 66.17944032573747,
    "avg" : 54.73646092198321,
    "timestamp" : 1626332400
  }, {
    "min" : 35.19502449635454,
    "max" : 54.15872280626323,
    "avg" : 44.67687365130888,
    "timestamp" : 1626340500
  } ]
}, {
  "resourceId" : "d3f824eb-605d-4daa-9411-5c9fdc77f7e2",
  "deviceName" : "device_32",
  "deviceGroup" : "group_a",
  "direction" : "in",
  "power" : [ {
    "min" : 44.976106447868105,
    "max" : 92.25964866813364,
    "avg" : 68.61787755800087,
    "timestamp" : 1626300000
  }, {
    "min" : 23.91763472609148,
    "max" : 58.45271064565549,
    "avg" : 41.18517268587349,
    "timestamp" : 1626300900
  }, {
    "min" : 42.56366246328341,
    "max" : 71.82759283772931,
    "avg" : 57.19562765050636,
    "timestamp" : 1626302700
  }, {
    "min" : 40.07838463833329,
    "max" : 61.653360768604,
    "avg" : 50.865872703468646,
    "timestamp" : 1626305400
  }, {
    "min" : 32.52205893824315,
    "max" : 67.1767025119804,
    "avg" : 49.84938072511177,
    "timestamp" : 1626309000
  }, {
    "min" : 41.6436075143569,
    "max" : 65.75333934938998,
    "avg" : 53.69847343187344,
    "timestamp" : 1626313500
  }, {
    "min" : 8.653460259596962,
    "max" : 68.15008169413144,
    "avg" : 38.4017709768642,
    "timestamp" : 1626318900
  }, {
    "min" : 46.36800471418644,
    "max" : 72.52127987748437,
    "avg" : 59.44464229583541,
    "timestamp" : 1626325200
  }, {
    "min" : 15.709453386867605,
    "max" : 94.42017378749053,
    "avg" : 55.06481358717907,
    "timestamp" : 1626332400
  }, {
    "min" : 6.795157194347455,
    "max" : 71.03510420865881,
    "avg" : 38.91513070150313,
    "timestamp" : 1626340500
  } ]
}, {
  "resourceId" : "b521feed-1d3d-4fd2-add3-dbf6896e38a5",
  "deviceName" : "device_33",
  "deviceGroup" : "group_b",
  "direction" : "out",
  "power" : [ {
    "min" : 34.392182317627345,
    "max" : 80.69060930853769,
    "avg" : 57.54139581308252,
    "timestamp" : 1626300000
  }, {
    "min" : 9.870728828899741,
    "max" : 72.08749564451423,
    "avg" : 40.97911223670699,
    "timestamp" : 1626300900
  }, {
    "min" : 26.628722856266904,
    "max" : 51.103224567617936,
    "avg" : 38.86597371194242,
    "timestamp" : 1626302700
  }, {
    "min" : 46.33542507549411,
    "max" : 58.579035096647694,
    "avg" : 52.4572300860709,
    "timestamp" : 1626305400
  }, {
    "min" : 17.95028490671219,
    "max" : 99.99359498261056,
    "avg" : 58.97193994466137,
    "timestamp" : 1626309000
  }, {
    "min" : 11.90160517829228,
    "max" : 92.39046431320796,
    "avg" : 52.14603474575012,
    "timestamp" : 1626313500
  }, {
    "min" : 10.785344343627314,
    "max" : 68.2800153480865,
    "avg" : 39.532679845856904,
    "timestamp" : 1626318900
  }, {
    "min" : 11.58566758564929,
    "max" : 76.38282021276268,
    "avg" : 43.984243899205985,
    "timestamp" : 1626325200
  }, {
    "min" : 4.484616551900983,
    "max" : 97.19374050277135,
    "avg" : 50.839178527336166,
    "timestamp" : 1626332400
  }, {
    "min" : 8.467729217924617,
    "max" : 98.11260101225959,
    "avg" : 53.2901651150921,
    "timestamp" : 1626340500
  } ]
}, {
  "resourceId" : "4a181016-e02c-4fff-9693-9631805034dc",
  "deviceName" : "device_34",
  "deviceGroup" : "group_b",
  "direction" : "out",
  "power" : [ {
    "min" : 23.935796230821445,
    "max" : 63.762352215580776,
    "avg" : 43.849074223201114,
    "timestamp" : 1626300000
  }, {
    "min" : 14.580753681273348,
    "max" : 97.5688949090129,
    "avg" : 56.074824295143124,
    "timestamp" : 1626300900
  }, {
    "min" : 4.697311100523571,
    "max" : 64.44354034776153,
    "avg" : 34.57042572414255,
    "timestamp" : 1626302700
  }, {
    "min" : 14.59325297857965,
    "max" : 85.74035910531012,
    "avg" : 50.16680604194489,
    "timestamp" : 1626305400
  }, {
    "min" : 40.68284805768136,
    "max" : 81.57310536707676,
    "avg" : 61.127976712379066,
    "timestamp" : 1626309000
  }, {
    "min" : 41.442792385999205,
    "max" : 82.10216345614288,
    "avg" : 61.772477921071044,
    "timestamp" : 1626313500
  }, {
    "min" : 28.562208406358838,
    "max" : 78.83890956494463,
    "avg" : 53.70055898565173,
    "timestamp" : 1626318900
  }, {
    "min" : 44.10198287884618,
    "max" : 79.17650678524826,
    "avg" : 61.639244832047225,
    "timestamp" : 1626325200
  }, {
    "min" : 21.209097530576067,
    "max" : 70.82157249453012,
    "avg" : 46.015335012553095,
    "timestamp" : 1626332400
  }, {
    "min" : 27.21429793115857,
    "max" : 75.16500631735576,
    "avg" : 51.189652124257165,
    "timestamp" : 1626340500
  } ]
}, {
  "resourceId" : "5e0d0400-a318-4622-9e5b-83d9ec9398b9",
  "deviceName" : "device_35",
  "deviceGroup" : "group_b",
  "direction" : "in",
  "power" : [ {
    "min" : 6.722727491847933,
    "max" : 57.75306166697128,
    "avg" : 32.237894579409605,
    "timestamp" : 1626300000
  }, {
    "min" : 19.423955710814056,
    "max" : 60.27728022288284,
    "avg" : 39.850617966848446,
    "timestamp" : 1626300900
  }, {
    "min" : 12.777658908535681,
    "max" : 52.03593079524589,
    "avg" : 32.40679485189079,
    "timestamp" : 1626302700
  }, {
    "min" : 24.842287741724892,
    "max" : 92.78723298157746,
    "avg" : 58.814760361651174,
    "timestamp" : 1626305400
  }, {
    "min" : 19.315098977413204,
    "max" : 61.73882311457945,
    "avg" : 40.52696104599633,
    "timestamp" : 1626309000
  }, {
    "min" : 25.242415514489384,
    "max" : 81.0370518735778,
    "avg" : 53.13973369403359,
    "timestamp" : 1626313500
  }, {
    "min" : 25.878906361547102,
    "max" : 63.237936153931074,
    "avg" : 44.558421257739084,
    "timestamp" : 1626318900
  }, {
    "min" : 15.254730598374401,
    "max" : 96.57863620980922,
    "avg" : 55.91668340409181,
    "timestamp" : 1626325200
  }, {
    "min" : 39.22084841618834,
    "max" : 53.40951199113262,
    "avg" : 46.315180203660475,
    "timestamp" : 1626332400
  }, {
    "min" : 18.04758430264472,
    "max" : 81.39317609300048,
    "avg" : 49.7203801978226,
    "timestamp" : 1626340500
  } ]
}, {
  "resourceId" : "6a0e3b17-daa2-4e50-a0e8-a4e1bb2ffefc",
  "deviceName" : "device_36",
  "deviceGroup" : "group_a",
  "direction" : "in",
  "power" : [ {
    "min" : 25.152184109910884,
    "max" : 74.29502530434264,
    "avg" : 49.72360470712677,
    "timestamp" : 1626300000
  }, {
    "min" : 44.72074861592472,
    "max" : 77.66179715924335,
    "avg" : 61.191272887584034,
    "timestamp" : 1626300900
  }, {
    "min" : 26.002454481907996,
    "max" : 90.9585561172359,
    "avg" : 58.480505299571945,
    "timestamp" : 1626302700
  }, {
    "min" : 26.913643875535914,
    "max" : 75.87368096708558,
    "avg" : 51.393662421310744,
    "timestamp" : 1626305400
  }, {
    "min" : 44.461381463107415,
    "max" : 70.33498937365039,
    "avg" : 57.3981854183789,
    "timestamp" : 1626309000
  }, {
    "min" : 15.935971749851586,
    "max" : 86.15281074659251,
    "avg" : 51.04439124822205,
    "timestamp" : 1626313500
  }, {
    "min" : 43.02607474349771,
    "max" : 85.22799463956332,
    "avg" : 64.12703469153051,
    "timestamp" : 1626318900
  }, {
    "min" : 31.06532132212216,
    "max" : 61.560430904285184,
    "avg" : 46.31287611320367,
    "timestamp" : 1626325200
  }, {
    "min" : 6.753288582925037,
    "max" : 76.25834942701454,
    "avg" : 41.50581900496979,
    "timestamp" : 1626332400
  }, {
    "min" : 39.52446562983027,
    "max" : 54.78757450897348,
    "avg" : 47.156020069401876,
    "timestamp" : 1626340500
  } ]
}, {
  "resourceId" : "269c8b1f-ae8d-4e4e-a2bd-eeea4ba3bb7d",
  "deviceName" : "device_37",
  "deviceGroup" : "group_a",
  "direction" : "out",
  "power" : []
}, {
  "resourceId" : "e1b8c57c-b154-4c0b-9e11-2b0139efac22",
  "deviceName" : "device_38",
  "deviceGroup" : "group_b",
  "direction" : "in",
  "power" : [ {
    "min" : 20.07045183889519,
    "max" : 97.9367945080449,
    "avg" : 59.00362317347005,
    "timestamp" : 1626300000
  }, {
    "min" : 8.04156116055698,
    "max" : 71.2040211735737,
    "avg" : 39.62279116706534,
    "timestamp" : 1626300900
  }, {
    "min" : 13.29820598733613,
    "max" : 94.46375784790726,
    "avg" : 53.880981917621696,
    "timestamp" : 1626302700
  }, {
    "min" : 31.567151474022918,
    "max" : 57.79941673156854,
    "avg" : 44.68328410279573,
    "timestamp" : 1626305400
  }, {
    "min" : 49.12505655700538,
    "max" : 80.21234698566525,
    "avg" : 64.66870177133532,
    "timestamp" : 1626309000
  }, {
    "min" : 11.905546488440423,
    "max" : 55.44394640796753,
    "avg" : 33.674746448203976,
    "timestamp" : 1626313500
  }, {
    "min" : 6.635422162799132,
    "max" : 86.25550407515078,
    "avg" : 46.445463118974956,
    "timestamp" : 1626318900
  }, {
    "min" : 16.384742103592338,
    "max" : 94.06169214860898,
    "avg" : 55.223217126100664,
    "timestamp" : 1626325200
  }, {
    "min" : 15.718700156540256,
    "max" : 91.16822785444396,
    "avg" : 53.4434640054921,
    "timestamp" : 1626332400
  }, {
    "min" : 48.53369164259253,
    "max" : 64.71881226699224,
    "avg" : 56.62625195479239,
    "timestamp" : 1626340500
  } ]
}, {
  "resourceId" : "4d5b9f5e-2b18-41bd-96f0-96674ed9846a",
  "deviceName" : "device_2",
  "deviceGroup" : "group_a",
  "direction" : "in",
  "power" : [ {
    "min" : 1.6857612748037325,
    "max" : 74.65413012736408,
    "avg" : 38.16994570108391,
    "timestamp" : 1626313500
  }, {
    "min" : 24.04934688576603,
    "max" : 93.4649278729386,
    "avg" : 58.757137379352315,
    "timestamp" : 1626318900
  }, {
    "min" : 16.48584933469163,
    "max" : 63.40965932974939,
    "avg" : 39.94775433222051,
    "timestamp" : 1626325200
  }, {
    "min" : 44.45372136152757,
    "max" : 94.96159279146349,
    "avg" : 69.70765707649554,
    "timestamp" : 1626332400
  }, {
    "min" : 25.578830324063485,
    "max" : 96.19326808562147,
    "avg" : 60.88604920484248,
    "timestamp" : 1626340500
  } ]
}, {
  "resourceId" : "49e258fe-9d40-43b4-9a29-31f82ad5ec15",
  "deviceName" : "device_1",
  "deviceGroup" : "group_a",
  "direction" : "in",
  "power" : [ {
    "min" : 10.782860693607224,
    "max" : 67.79129854149024,
    "avg" : 39.28707961754873,
    "timestamp" : 1626313500
  }, {
    "min" : 17.945107735973185,
    "max" : 68.5776531465783,
    "avg" : 43.26138044127574,
    "timestamp" : 1626318900
  }, {
    "min" : 38.88147273119834,
    "max" : 72.77197291190156,
    "avg" : 55.82672282154995,
    "timestamp" : 1626325200
  }, {
    "min" : 38.69360606090658,
    "max" : 86.25229776720249,
    "avg" : 62.47295191405453,
    "timestamp" : 1626332400
  }, {
    "min" : 12.009699113430718,
    "max" : 58.190391223971474,
    "avg" : 35.100045168701094,
    "timestamp" : 1626340500
  } ]
} ]